<?xml version="1.0" encoding="UTF-8" standalone="no"?>
<!-- Created with Inkscape (http://www.inkscape.org/) -->
<svg
   version="1.1" id="Layer_16" xmlns="http://www.w3.org/2000/svg" xmlns:xlink="http://www.w3.org/1999/xlink"
   width="45px" height="45px" viewBox="0 0 45 45"
   id="svg2">
  
  <g
     transform="translate(293.42856,-456.07648)"
     id="layer1">
    <g
       transform="translate(-1.0959925,-1.3623321)"
       id="g3264">
      <path
         d="M -255.84411,479.44293 L -255.84411,487.19506 C -255.84411,491.56277 -262.33494,495.10757 -270.33257,495.10757 C -278.33019,495.10757 -284.82102,491.56277 -284.82102,487.19506 L -284.82102,479.44293 L -255.84411,479.44293 z"
         id="path3254"
         style="fill:#000;fill-opacity:1;fill-rule:evenodd;stroke:#fff;stroke-width:0.98981297;stroke-linecap:square;stroke-linejoin:miter;stroke-miterlimit:4;stroke-dashoffset:0;stroke-opacity:1" />
      <path
         d="M -255.84411,471.68766 L -255.84411,479.43979 C -255.84411,483.8075 -262.33494,487.3523 -270.33257,487.3523 C -278.33019,487.3523 -284.82102,483.8075 -284.82102,479.43979 L -284.82102,471.68766 L -255.84411,471.68766 z"
         id="path3225"
         style="fill:#000;fill-opacity:1;fill-rule:evenodd;stroke:#fff;stroke-width:0.98981297;stroke-linecap:square;stroke-linejoin:miter;stroke-miterlimit:4;stroke-dashoffset:0;stroke-opacity:1" />
      <path
         d="M 37.637911,15.718104 A 14.488457,7.7521262 0 1 1 8.6609974,15.718104 A 14.488457,7.7521262 0 1 1 37.637911,15.718104 z"
         transform="matrix(1,0,0,1.0206897,-293.48202,455.64435)"
         id="path2453"
         style="opacity:1;fill:#000;fill-opacity:1;fill-rule:evenodd;stroke:#fff;stroke-width:0.98981297;stroke-linecap:square;stroke-linejoin:miter;stroke-miterlimit:4;stroke-dasharray:none;stroke-dashoffset:0;stroke-opacity:1" />
    </g>
  </g>
</svg>
